mybgene,Target
PPARA,ACSL6
PPARG,ACSL6
RXRA,ACSL6
CTNNB1,CCND1
JUN,CCND1
MAPK1,CCND1
MAPK3,CCND1
MYC,CCND1
NFKB1,CCND1
STAT1,CCND1
PPARG,CD36
RXRA,CD36
SMAD3,CDKN1A
TP53,CDKN1A
SMAD3,CDKN2B
JUN,CXCL1
MAPK14,CXCL1
NFKB1,CXCL1
STAT1,CXCL10
PPARA,FADS2
RXRA,FADS2
TP53,FAS
GLI3,GLI1
TP53,IGFBP3
JUN,MMP1
MYC,MMP1
PPARG,MMP1
RXRA,MMP1
JUN,MMP2
MYC,MMP2
JUN,MMP9
MYC,MMP9
NFKB1,NOS2
PPARA,PLTP
RXRA,PLTP
TP53,PPM1D
NFKB1,PTGS2
TP53,SERPINE1
STAT1,SOCS1
NFKB1,SOCS3
STAT1,SOCS3
HIF1A,TGFB1
EPAS1,TGFB1
HIF1A,TGFB2
EPAS1,TGFB2
HIF1A,TGFB3
TP53,TGFB3
NFKB2,TRAF1
NFKB2,TRAF3
NFKB2,TRAF5
ETS1,VEGFA
JUN,VEGFA
MYC,VEGFA
RELA,VEGFA
STAT3,VEGFA
NFKB2,XIAP
